{
    "keyWord": [
    {
        "word": "stock",
        "defintion": "When you purchase a company's stock, you're purchasing a small piece of that company, called a share.",
        "link": "www.investopedia.com/terms/s/stock.asp"
    },
{
        "word": "stocks",
        "defintion": "When you purchase a company's stock, you're purchasing a small piece of that company, called a share.",
        "link": "www.investopedia.com/terms/s/stock.asp"
    },
    {
        "word": "federal reserve",
        "defintion": "The central banking system of the United States and arguably the most powerful financial institution in the world.",
        "link": "www.investopedia.com/terms/f/federalreservebank.asp"
    },
    {
        "word": "treasuries",
        "defintion": "The government department responsible for controlling public expenditure, national debt, and the overall economy.",
        "link": "www.investopedia.com/terms/u/ustreasury.asp"
    },
    {
        "word": "bond",
        "defintion": "An investor loans money to a company for a fixed period of time. At the end of that period, the value of the bond is repaid with interest.",
        "link": "www.investopedia.com/terms/b/bond.asp"
    },
{
        "word": "bonds",
        "defintion": "An investor loans money to a company for a fixed period of time. At the end of that period, the value of the bond is repaid with interest.",
        "link": "www.investopedia.com/terms/b/bond.asp"
    },
{
        "word": "S&P 500",
        "defintion": "A stock market index that measures the stock performance of 500 large companies listed on stock exchanges in the United States.",
        "link": "en.wikipedia.org/wiki/S%26P_500_Index"
    },
{
        "word": "index",
        "defintion": "An index fund is a type of mutual fund with a portfolio constructed to match or track the components of a financial market index.",
        "link": "www.investopedia.com/terms/i/indexfund.asp"
    },
{
        "word": "share",
        "defintion": "An indivisible unit of capital, expressing the ownership relationship between the company and the shareholder.",
        "link": "en.wikipedia.org/wiki/Share_(finance)"
    },
{
        "word": "shares",
        "defintion": "An indivisible unit of capital, expressing the ownership relationship between the company and the shareholder.",
        "link": "en.wikipedia.org/wiki/Share_(finance)"
    },
{
        "word": "dividend",
        "defintion": "A sum of money paid regularly (typically quarterly) by a company to its shareholders out of its profits (or reserves)",
        "link": "www.investopedia.com/terms/d/dividend.asp"
    },
{
        "word": "yields",
        "defintion": "The amount of cash that returns to the owners of the security, in the form of interest or dividends received from it.",
        "link": "en.wikipedia.org/wiki/Yield_(finance)"
    },
{
        "word": "equities",
        "defintion": "Represents the amount of money that would be returned to shareholders if all assets were liquidated and the company's debt was paid off.",
        "link": "www.investopedia.com/terms/e/equity.asp"
    },
{
        "word": "equity",
        "defintion": "Represents the amount of money that would be returned to shareholders if all assets were liquidated and the company's debt was paid off.",
        "link": "www.investopedia.com/terms/e/equity.asp"
    },
{
        "word": "interest",
        "defintion": "Calculated as a percentage of a loan (or deposit) balance, paid to the lender periodically for the privilege of using their money.",
        "link": "en.wikipedia.org/wiki/Interest"
    },
{
        "word": "GDP",
        "defintion": "Gross Domestic Product (GDP) is the monetary value of all finished goods and services made within a country during a specific period.",
        "link": "www.investopedia.com/terms/g/gdp.asp"
    },
{
        "word": "commodity",
        "defintion": "A basic good, raw material or primary agricultural product that can be bought and sold, such as copper or coffee.",
        "link": "www.investopedia.com/terms/c/commodity.asp"
    },
{
        "word": "ETF",
        "defintion": "A type of fund that owns assets, like stocks, commodities, or futures, but has its ownership divided into shares that trade on stock exchanges.",
        "link": "www.investopedia.com/terms/e/etf.asp"
    },
{
        "word": "exchange-traded fund",
        "defintion": "A type of fund that owns assets, like stocks, commodities, or futures, but has its ownership divided into shares that trade on stock exchanges.",
        "link": "www.investopedia.com/terms/e/etf.asp"
    },
{
        "word": "mutual fund",
        "defintion": "Consists of stocks, bonds, or other securities. They give individual investors access to diversified, professionally managed portfolios at a low price.",
        "link": "www.investopedia.com/terms/m/mutualfund.asp"
    },
{
        "word": "growth stock",
        "defintion": "Typically a well-known, successful company that is experiencing rapid growth in earnings and revenue, and usually pays little or no dividend.",
        "link": "en.wikipedia.org/wiki/Growth_stock"
    },
{
        "word": "market price",
        "defintion": "The current price of an asset.",
        "link": "www.investopedia.com/terms/m/market-price.asp"
    },
{
        word: "Portfolio",
	    classId" "portfolio",
        definition: "A collection of investments owned by one organization or individual, and managed as a collective whole with specific investment goals in mind.",
        link: "en.wikipedia.org/wiki/Portfolio_investment"
    },
{
        word: "YTD",
	classId: "ytd",
        definition: "Year-to-date return on an investment including appreciation and dividends or interest.",
        link: "www.investopedia.com/terms/y/ytd.asp"
    },
{
        word: "Volatility",
	classId: "volatility",
        definition: "The amount and frequency with which an investment fluctuates in value.",
        link: "www.investopedia.com/terms/v/volatility.asp"
    },
{
        word: "Volatile",
	classId: "volatile",
        definition: "If an investment is volatile, it means that the investment fluctuates in value with a high frequency and amount.",
        link: "www.investopedia.com/terms/v/volatility.asp"
    },
{
        word: "Investor",
	classId: "investor",
        definition: "An investor is a person that allocates capital with the expectation of a future financial return.",
        link: "en.wikipedia.org/wiki/Investor"
    },
{
        word: "Valuation",
	classId: "valuation",
        definition: "An estimate of the value or worth of a company; the price investors assign to an individual stock.",
        link: "www.investopedia.com/terms/v/valuation.asp"
    },
{
        word: "Market",
	classId: "market",
        definition: "The collection of markets and exchanges where regular activities of buying, selling, and issuance of shares of publicly-held companies take place.",
        link: "www.investopedia.com/terms/s/stockmarket.asp"
    },
{
        word: "Certificate of Deposit",
	classId: "cd",
        definition: "A certificate of deposit (CD) is an agreement to deposit money for a fixed period with a bank that will pay you interest.",
        link: "www.thebalance.com/certificates-of-deposit-3305913"
    },
{
        word: "Broker",
	classId: "broker",
        definition: "A broker is an individual person who arranges transactions between a buyer and a seller for a commission when the deal is executed.",
        link: "www.investopedia.com/terms/b/broker.asp"
    },
{
        word: "Fund",
	classId: "fund",
        definition: "A fund is a pool of money that is allocated for a specific purpose.",
        link: "www.investopedia.com/terms/f/fund.asp"
    },
{
        word: "Funds",
	classId: "fund",
        definition: "A fund is a pool of money that is allocated for a specific purpose.",
        link: "www.investopedia.com/terms/f/fund.asp"
    },
{
        word: "IRA",
	classId: "ira",
        definition: "An individual retirement account (IRA) is a tax-advantaged investing tool that individuals use to earmark funds for retirement savings.",
        link: "www.investopedia.com/terms/i/ira.asp"
    },
{
        word: "Dow",
	classId: "dow",
        definition: "The most commonly used indicator of stock market performance, based on prices of 30 actively traded blue chip stocks, primarily major industrial companies.",
        link: "en.wikipedia.org/wiki/Dow_Jones_Industrial_Average"
    },
{
        word: "Brokers",
	classId: "broker",
        definition: "A broker is an individual person who arranges transactions between a buyer and a seller for a commission when the deal is executed.",
        link: "www.investopedia.com/terms/b/broker.asp"
    },
{
        word: "ETFs",
	classId: "etf",
        definition: "A type of fund that owns assets, like stocks, commodities, or futures, but has its ownership divided into shares that trade on stock exchanges.",
        link: "www.investopedia.com/terms/e/etf.asp"
    },
{
        word: "GIC",
	classId: "gic",
        definition: "A guaranteed investment certificate (GIC) is a Canadian investment that offers a guaranteed rate of return over a fixed period of time.",
        link: "www.investopedia.com/terms/g/gic.asp"
    },
{
        word: "GICs",
	classId: "gic",
        definition: "A guaranteed investment certificate (GIC) is a Canadian investment that offers a guaranteed rate of return over a fixed period of time.",
        link: "www.investopedia.com/terms/g/gic.asp"
    },
{
        word: "Mutual Funds",
	classId: "mutualFund",
        definition: "Consists of stocks, bonds, or other securities. They give individual investors access to diversified, professionally managed portfolios at a low price.",
        link: "www.investopedia.com/terms/m/mutualfund.asp"
    },
{
        word: "MERs",
	classId: "mer",
        definition: "The Management Expense Ratio (MER) represents the combined total of the management fee, operating expenses and taxes charged to a fund during a given year.",
        link: "www.investopedia.com/articles/investing/062113/mutual-funds-management-fees-vs-mer.asp"
    },
{
        word: "TFSA",
	classId: "tfsa",
        definition: "An account that does not apply taxes on any contributions, interest earned, dividends, or capital gains, and can be withdrawn tax free.",
        link: "www.investopedia.com/terms/t/tax-free-savings-account-tfsa.asp"
    },
{
        word: "RSP",
	classId: "rsp",
        definition: "RSP contributions can help you pay less tax and build a retirement fund.",
        link: "www.td.com/ca/en/personal-banking/products/saving-investing/registered-plans/rsp/"
    },
{
        word: "RESP",
	classId: "resp",
        definition: "A dedicated savings plan to help you save for a child's education after high school.",
        link: "www.td.com/ca/en/personal-banking/how-to/saving-investing/resp/"
    },
{
        word: "RDSP",
	classId: "rdsp",
        definition: "A long-term savings plan to help Canadians with disabilities and their families save for the future.",
        link: "www.td.com/ca/en/personal-banking/products/saving-investing/registered-plans/rdsp/"
    },
{
        word: "Grant",
	classId: "grant",
        definition: "A grant is a quantity of money given by a government or organization for a specific purpose. Unlike a loan, you do not have to pay back the money.",
        link: "www.investopedia.com/terms/g/grant.asp"
    },
{
        word: "Liquid",
	classId: "liquid",
        definition: "Liquidity is how quickly an asset can be bought/sold in the market at a price reflecting its intrinsic value (ie. the ease of converting it to cash).",
        link: "www.investopedia.com/terms/l/liquidity.asp"
    },
{
        word: "Liquidity",
	classId: "liquidity",
        definition: "Liquidity is how quickly an asset can be bought/sold in the market at a price reflecting its intrinsic value (ie. the ease of converting it to cash).",
        link: "www.investopedia.com/terms/l/liquidity.asp"
    },
{
        word: "Compound Interest",
	classId: "compoundInterest",
        definition: "Reinvesting interest so that interest in the next period is then earned on the principal sum plus previously accumulated interest (ie. interest on interest).",
        link: "www.investopedia.com/terms/c/compoundinterest.asp"
    },

    ]
}